id,firstName,lastName,age,position,height,weight,school,espn_id
1,Jahlil,Okafor,18,C,83,275,Duke,20123
2,Emmanuel,Mudiay,18,PG,77,196,China,20127
3,Karl-Anthony,Towns,18,C,85,250,Kentucky,20129
4,Kristaps,Porzingis,19,PF,83,220,Latvia,20069
5,Kelly,Oubre,18,SF,79,204,Kansas,20130
6,Stanley,Johnson,18,SF,79,237,Arizona,20131
7,Cliff,Alexander,18,PF,80,251,Kansas,20126
8,Kevon,Looney,18,SF,82,210,UCLA,20153
9,Myles,Turner,18,C,85,240,Texas,20124
10,Mario,Hezonja,19,SF,79,200,Croatia,19973
11,Terry,Rozier,20,PG,74,190,Louisville,20027
12,Chris,Walker,19,SF,81,195,Florida,19988
13,Justise,Winslow,18,SF,78,222,Duke,20134
14,Willie,Cauley-Stein,21,C,85,220,Kentucky,19853
15,Montrezl,Harrell,20,PF,80,235,Louisville,19917
16,Sam,Dekker,20,SF,80,215,Wisconsin,19857
17,Rondae,Hollis-Jefferson,19,SF,79,205,Arizona,19989
18,Justin,Jackson,19,SF,80,200,North Carolina,20135
19,Bobby,Portis,19,PF,83,231,Arkansas,19987
20,Wayne,Selden,19,SG,77,230,Kansas,19986
21,Caris,LeVert,20,SF,78,185,Michigan,20108
22,Egemen,Guven,17,PF,81,210,Turkey,20156
23,R.J.,Hunter,20,SG,77,185,Georgia St,20152
24,Tyus,Jones,18,PG,73,170,Duke,20132
25,Ron,Baker,21,PG,75,213,Wichita State,20074
26,Ilimane,Diop,19,C,85,230,Senegal,20068
27,Marc,Garcia,18,SG,78,180,Spain,20147
28,Alex,Poythress,21,SF,79,215,Kentucky,19807
29,Jarell,Martin,20,PF,81,241,LSU,19985
30,Norman,Powell,21,SG,76,215,UCLA,20154
31,Branden,Dawson,21,SF,78,220,Michigan State,19736
32,Delon,Wright,22,PG,77,178,Utah,20133
33,Buddy,Hield,20,SG,76,208,Oklahoma,20148
34,Aaron,Harrison,19,SG,77,210,Kentucky,19906
35,Dakari,Johnson,19,C,82,250,Kentucky,19970
36,Rashad,Vaughn,18,SG,77,200,UNLV,20157
37,Marcus,Paige,21,PG,73,157,North Carolina,19862
38,Andrew,Harrison,19,PG,77,207,Kentucky,19901
39,Frank,Kaminsky,21,C,85,234,Wisconsin,20080
40,Jabari,Bird,20,SG,78,190,California,19993
41,Brice,Johnson,20,PF,81,187,North Carolina,19921
42,Amida,Brimah,20,C,85,217,Connecticut,20155
43,Terran,Petteway,21,SG,78,209,Nebraska,20114
44,Trey,Lyles,18,PF,82,230,Kentucky,20128
45,Jordan,Mickey,20,PF,80,235,LSU,20075
46,Theo,Pinson,18,SF,78,190,North Carolina,20164
47,Marcus,Lee,20,PF,81,200,Kentucky,19971
48,Marko,Arapovic,18,C,82,230,Croatia,20162
49,Kasey,Hill,20,PG,73,175,Florida,19972
50,Brandon,Ashley,20,SF,80,230,Arizona,19855
51,A.J.,Hammons,22,C,85,280,Purdue,20018
52,Damian,Jones,19,C,82,235,Vanderbilt,20180
53,Isaiah,Taylor,20,PG,75,170,Texas,20185
54,Moussa,Diagne,20,C,83,230,Senegal,20138
55,Kenneth,Smith,21,PG,75,180,Louisiana Tech,20122
56,Shawn,Long,21,PF,81,245,Louisiana Lafayette,20117
57,Kenan,Sipahi,19,PG,76,180,Kosovo,20066
58,Sindarius,Thornwell,19,SG,77,205,South Carolina,20078
59,D'Angelo,Russell,18,SG,77,176,Ohio State,20178
60,Devin,Booker,17,SG,78,195,Kentucky,20159
61,Nedim,Buza,19,SF,79,190,Bosnia,20140
62,Juwan,Staten,22,PG,73,190,West Virginia,20099
63,Kaleb,Tarczewski,21,C,85,230,Arizona,19798
64,Rasmus,Larsen,19,PF,83,225,Denmark,19866
65,Jerian,Grant,21,PG,77,185,Notre Dame,19856
66,Yankuba,Sima,18,C,82,215,Spain,20176
67,Jamari,Traylor,22,PF,80,220,Kansas,19877
68,Michael,Frazier,20,SG,76,200,Florida,20029
69,Michael,Qualls,20,SG,78,210,Arkansas,20092
70,Guillem,Vives,21,PG,76,180,Spain,20137
71,Devin,Robinson,19,SF,80,180,Florida,20169
72,Marcus,Foster,19,PG,74,200,Kansas State,20101
73,Isaac,Copeland,19,SF,82,210,Georgetown,20179
74,Domantas,Sabonis,18,PF,82,230,Gonzaga,20160
75,Rasheed,Sulaimon,20,SG,76,190,Duke,19808
76,Isaac,Hamilton,20,SG,77,185,UCLA,20020
77,Treveon,Graham,20,SG,77,215,VA Commonwealth,19910
78,Chris,Obekpa,20,PF,81,223,St. John's,19942
79,Tyler,Ulis,18,PG,69,142,Kentucky,20172
80,Chris,McCullough,19,PF,81,200,Syracuse,20163
81,Timothe,Luwawu,19,SF,78,205,France,20181
82,Troy,Williams,19,SF,79,206,Indiana,20081
83,E.C.,Matthews,18,SG,76,180,Rhode Island,20158
84,Tony,Parker,21,C,81,255,UCLA,19882
85,Rodney,Purvis,20,SG,74,195,Connecticut,19861
86,Zak,Irvin,20,SG,78,200,Michigan,20022
87,Nikola,Milutinov,19,C,83,220,Serbia,20039
88,Dyshawn,Pierre,20,SF,78,210,Dayton,20085
89,Joseph,Young,22,SG,75,185,Oregon,20077
90,Daniel,Hamilton,19,SF,81,178,Connecticut,20186
91,Andzejs,Pasecniks,18,C,85,200,Latvia,20175
92,Tyler,Haws,23,SG,77,200,BYU,19920
93,Austin,Nichols,20,PF,81,212,Memphis,20051
94,Nigel,Williams-Goss,19,PG,75,180,Washington,20001
95,Anthony,Barber,20,PG,74,165,NC State,19992
96,Mamadou,Ndiaye,21,C,90,290,UC Irvine,20076
97,Mangok,Mathiang,21,C,82,220,Louisville,20168
98,Le'Bryan,Nash,22,SF,79,230,Oklahoma State,19657
99,Boris,Dallo,20,PG,76,180,France,19915
100,Olivier,Hanlan,21,SG,76,188,Boston College,20043
